3 Bat data | Osa Conservation: Piro Restoration Experiment
…
## 1 H1 (L1 noot H1) 2022-02-01 NA                    0.2986111…     8.42     -83.4
## 2 H4              2022-02-01 NA                    0.3555555…     8.41     -83.4
## 3 H5              2022-02-01 NA                    0.3354166…     8.41     -83.4
## 4 H7              2022-02-01 NA                    0.2993055…     8.41     -83.4
## 5 H8              2022-02-01 NA                    0.2729166…     8.41     -83.3
## 6 H9              2022-02-01 NA                    0.4076388…     8.40     -83.4
## # ℹ 30 more variables: box_checked <chr>, presence_of_bats <chr>,
## #   presence_wasps <chr>, carollia_adult <chr>, carollia_pup <chr>,
## #   glossophaga_adult <chr>, glossophaga_pup <chr>, micronycteris_adult <chr>,
## #   micronycteris_pup <chr>, genus_no_id <chr>, insect_remnants <chr>,
## #   piper_remnants <chr>, anacardium_remnants <chr>, other_food_remnants <chr>,
## #   scat_evidence <chr>, species_notes <chr>, insect_remnant_notes <lgl>,
## #   `fruits/flower_notes` <lgl>, general_remnants_notes <chr>, …

## # A tibble: 720 × 36
##    plot           date_check `earth ranger report` time_check latitude longitude
##    <chr>          <date>     <chr>                 <chr>         <dbl>     <dbl>
##  1 H1 (L1 noot H… 2022-02-01 NA                    0.2986111…     8.42     -83.4
##  2 H4             2022-02-01 NA                    0.3555555…     8.41     -83.4
##  3 H5             2022-02-01 NA                    0.3354166…     8.41     -83.4
##  4 H7             2022-02-01 NA                    0.2993055…     8.41     -83.4
##  5 H8             2022-02-01 NA                    0.2729166…     8.41     -83.3
##  6 H9             2022-02-01 NA                    0.4076388…     8.40     -83.4
##  7 L10            2022-02-01 NA                    0.4256944…     8.40     -83.4
##  8 L4             2022-02-01 NA                    0.3576388…     8.41     -83.4
##  9 L5             2022-02-01 NA                    0.3305555…     8.41     -83.4
## 10 L8             2022-02-01 NA                    0.3104166…     8.41     -83.4
## # ℹ 710 more rows
## # ℹ 30 more variables: box_checked <chr>, presence_of_bats <chr>,
## #   presence_wasps <chr>, carollia_adult <chr>, carollia_pup <chr>,
## #   glossophaga_adult <chr>, glossophaga_pup <chr>, micronycteris_adult <chr>,
## #   micronycteris_pup <chr>, genus_no_id <chr>, insect_remnants <chr>,
## #   piper_remnants <chr>, anacardium_remnants <chr>, other_food_remnants <chr>,
## #   scat_evidence <chr>, species_notes <chr>, insect_remnant_notes <lgl>, …
