7 Species of conservation concern | Osa Conservation: Piro Restoration Experiment
…
            Osa Conservation: Piro Restoration Experiment

7 Species of conservation concern

Previous work by Arianna Basto created lists of mammal, bird and amphibian species in the Osa region which are of conservation concern. We will import these lists and extract any species detected thus far in our surveys.

## # A tibble: 49 × 9
##    class    order         family genus species common_name sp    count occupancy
##    <chr>    <chr>         <chr>  <chr> <chr>   <chr>       <chr> <int>     <dbl>
##  1 Aves     Accipitrifor… Accip… Bute… anthra… Common Bla… Bute…     1      0.02
##  2 Aves     Cathartiform… Catha… Cath… aura    Turkey Vul… Cath…     1      0.02
##  3 Aves     Columbiformes Colum… Colu… talpac… Ruddy Grou… Colu…     1      0.02
##  4 Aves     Passeriformes Thrau… Euco… penici… Grey-heade… Euco…     1      0.02
##  5 Mammalia Carnivora     Felid… Herp… yagoua… Jaguarundi  Herp…     1      0.02
##  6 Mammalia Carnivora     Felid… Leop… wiedii  Margay      Leop…     1      0.02
##  7 Mammalia Carnivora     Mephi… Cone… semist… Striped Ho… Cone…     1      0.02
##  8 Mammalia Primates      Cebid… Saim… oerste… Black-crow… Saim…     1      0.02
##  9 Reptilia Squamata      Iguan… Igua… iguana  Common Gre… Igua…     1      0.02
## 10 Aves     Columbiformes Colum… Lept… cassin… Grey-chest… Lept…     2      0.04
## # ℹ 39 more rows

## # A tibble: 1,285 × 19
##    plot_id date       site_date    time_found    code  species common_name count
##    <chr>   <date>     <chr>        <chr>         <chr> <chr>   <chr>       <dbl>
##  1 M07     2019-08-20 M07_20190820 NA            NA    NA      NA             NA
##  2 H08     2019-08-20 H08_20190820 NA            NA    NA      NA             NA
##  3 N08     2019-08-20 N08_20190820 NA            NA    NA      NA             NA
##  4 M04     2019-08-21 M04_20190821 0.8048611111… LEPI… Leptod… Spotted Fo…     1
##  5 M04     2019-08-21 M04_20190821 0.8097222222… DENE… Dendro… Hourglass …     1
##  6 H07     2019-08-21 H07_20190821 0.8222222222… LEPI… Leptod… Spotted Fo…     1
##  7 H07     2019-08-21 H07_20190821 0.8263888888… LEPI… Leptod… Spotted Fo…     1
##  8 H07     2019-08-21 H07_20190821 0.8298611111… DENE… Dendro… Hourglass …     1
##  9 L07     2019-08-21 L07_20190821 0.8395833333… LEPI… Leptod… Spotted Fo…     1
## 10 M06     2019-08-23 M06_20190823 0.8243055555… DENE… Dendro… Hourglass …     1
## # ℹ 1,275 more rows
## # ℹ 11 more variables: distance_found <chr>, substrate <chr>, weight_g <chr>,
## #   svl_mm <chr>, `jaw width_mm` <chr>, Earthranger_report <chr>,
## #   comments <chr>, ...16 <chr>, ...17 <chr>, simple_treatment <fct>,
## #   year <dbl>
…
